\relax 
\@writefile{toc}{\contentsline {section}{\numberline {1}Instalacja i wdro\IeC {\.z}enie}{1}}
\newlabel{installSection}{{1}{1}}
\newlabel{httpd}{{1}{3}}
\@writefile{lol}{\contentsline {lstlisting}{\numberline {1}Kod, kt\IeC {\'o}ry powinien by\IeC {\'c} dopisany na ko\IeC {\'n}cu pliku \textit  {httpd.conf} serwera.}{3}}
