threshold	SP	SN
0	0	1
0.001	0.001027397	1
0.002	0.00239726	0.997916667
0.003	0.003767123	0.997916667
0.004	0.005136986	0.996527778
0.005	0.007191781	0.996527778
0.006	0.009931507	0.995138889
0.007	0.013013699	0.994444444
0.008	0.016780822	0.994444444
0.009	0.018835616	0.994444444
0.01	0.026369863	0.992361111
0.011	0.030821918	0.991666667
0.012	0.03630137	0.991666667
0.013	0.041438356	0.990972222
0.014	0.045547945	0.990972222
0.015	0.051712329	0.990277778
0.016	0.059246575	0.989583333
0.017	0.06609589	0.989583333
0.018	0.073630137	0.9875
0.019	0.078424658	0.9875
0.02	0.08630137	0.985416667
0.021	0.093835616	0.984027778
0.022	0.1	0.984027778
0.023	0.106506849	0.982638889
0.024	0.11130137	0.98125
0.025	0.117465753	0.980555556
0.026	0.125342466	0.977083333
0.027	0.131506849	0.975
0.028	0.13869863	0.972222222
0.029	0.146575342	0.972222222
0.03	0.155136986	0.970138889
0.031	0.164726027	0.970138889
0.032	0.173630137	0.970138889
0.033	0.180136986	0.970138889
0.034	0.189041096	0.967361111
0.035	0.194863014	0.965972222
0.036	0.201712329	0.963194444
0.037	0.210273973	0.9625
0.038	0.21609589	0.959722222
0.039	0.222260274	0.958333333
0.04	0.229109589	0.957638889
0.041	0.235958904	0.955555556
0.042	0.245205479	0.952777778
0.043	0.253424658	0.950694444
0.044	0.258219178	0.950694444
0.045	0.26609589	0.949305556
0.046	0.275342466	0.945138889
0.047	0.281164384	0.94375
0.048	0.285958904	0.943055556
0.049	0.292808219	0.940277778
0.05	0.297945205	0.939583333
0.051	0.303424658	0.938194444
0.052	0.306849315	0.935416667
0.053	0.31130137	0.934722222
0.054	0.320547945	0.933333333
0.055	0.326027397	0.93125
0.056	0.330479452	0.93125
0.057	0.335616438	0.929861111
0.058	0.339383562	0.927777778
0.059	0.343493151	0.925694444
0.06	0.349657534	0.924305556
0.061	0.354452055	0.922916667
0.062	0.36369863	0.922916667
0.063	0.371917808	0.922222222
0.064	0.37739726	0.920833333
0.065	0.382534247	0.920833333
0.066	0.387671233	0.91875
0.067	0.393835616	0.915972222
0.068	0.397260274	0.913194444
0.069	0.402054795	0.913194444
0.07	0.405479452	0.9125
0.071	0.410958904	0.910416667
0.072	0.414726027	0.908333333
0.073	0.42260274	0.908333333
0.074	0.427054795	0.906944444
0.075	0.431849315	0.904166667
0.076	0.434589041	0.902777778
0.077	0.438356164	0.902083333
0.078	0.442465753	0.901388889
0.079	0.44760274	0.899305556
0.08	0.451712329	0.898611111
0.081	0.456849315	0.898611111
0.082	0.460958904	0.896527778
0.083	0.468493151	0.894444444
0.084	0.473287671	0.892361111
0.085	0.475684932	0.890277778
0.086	0.480479452	0.888194444
0.087	0.482876712	0.8875
0.088	0.487328767	0.886805556
0.089	0.491780822	0.884027778
0.09	0.496575342	0.880555556
0.091	0.499315068	0.879861111
0.092	0.501369863	0.879861111
0.093	0.504794521	0.877777778
0.094	0.508219178	0.877777778
0.095	0.510273973	0.877083333
0.096	0.514383562	0.876388889
0.097	0.519520548	0.875
0.098	0.521917808	0.874305556
0.099	0.526027397	0.873611111
0.1	0.530136986	0.872222222
0.101	0.533561644	0.870833333
0.102	0.536986301	0.868055556
0.103	0.540753425	0.865277778
0.104	0.544863014	0.863888889
0.105	0.548972603	0.8625
0.106	0.551369863	0.861805556
0.107	0.553767123	0.860416667
0.108	0.556849315	0.858333333
0.109	0.560616438	0.854861111
0.11	0.563013699	0.851388889
0.111	0.566438356	0.85
0.112	0.570890411	0.847222222
0.113	0.575684932	0.842361111
0.114	0.576369863	0.840972222
0.115	0.579452055	0.838194444
0.116	0.583561644	0.836111111
0.117	0.585958904	0.834027778
0.118	0.588013699	0.833333333
0.119	0.589383562	0.831944444
0.12	0.590753425	0.831944444
0.121	0.593150685	0.830555556
0.122	0.594863014	0.829861111
0.123	0.59760274	0.828472222
0.124	0.601027397	0.825694444
0.125	0.603424658	0.822222222
0.126	0.608561644	0.820833333
0.127	0.611643836	0.81875
0.128	0.614726027	0.816666667
0.129	0.619178082	0.816666667
0.13	0.622260274	0.815972222
0.131	0.623630137	0.813888889
0.132	0.625684932	0.811805556
0.133	0.630479452	0.811111111
0.134	0.633219178	0.809722222
0.135	0.635616438	0.808333333
0.136	0.638356164	0.80625
0.137	0.642465753	0.80625
0.138	0.644863014	0.804166667
0.139	0.647260274	0.802777778
0.14	0.649315068	0.800694444
0.141	0.651369863	0.799305556
0.142	0.654794521	0.798611111
0.143	0.656164384	0.798611111
0.144	0.657191781	0.797916667
0.145	0.657534247	0.796527778
0.146	0.65890411	0.795833333
0.147	0.660273973	0.793055556
0.148	0.66369863	0.791666667
0.149	0.666438356	0.791666667
0.15	0.669520548	0.789583333
0.151	0.670547945	0.788888889
0.152	0.67260274	0.788888889
0.153	0.675	0.7875
0.154	0.676712329	0.786805556
0.155	0.679109589	0.784722222
0.156	0.681164384	0.784722222
0.157	0.684246575	0.783333333
0.158	0.687328767	0.780555556
0.159	0.690068493	0.780555556
0.16	0.692808219	0.778472222
0.161	0.694520548	0.777083333
0.162	0.695205479	0.775
0.163	0.695547945	0.772916667
0.164	0.696917808	0.772222222
0.165	0.69760274	0.770833333
0.166	0.698630137	0.76875
0.167	0.701369863	0.766666667
0.168	0.703424658	0.765277778
0.169	0.706849315	0.763888889
0.17	0.70890411	0.759722222
0.171	0.710616438	0.759027778
0.172	0.713013699	0.757638889
0.173	0.717808219	0.75625
0.174	0.718493151	0.754166667
0.175	0.720547945	0.754166667
0.176	0.722945205	0.752083333
0.177	0.725	0.75
0.178	0.726027397	0.749305556
0.179	0.727739726	0.747222222
0.18	0.729109589	0.745138889
0.181	0.731164384	0.745138889
0.182	0.733219178	0.743055556
0.183	0.734246575	0.741666667
0.184	0.737328767	0.738888889
0.185	0.739041096	0.7375
0.186	0.741780822	0.734722222
0.187	0.742808219	0.732638889
0.188	0.744520548	0.73125
0.189	0.745205479	0.729861111
0.19	0.746575342	0.728472222
0.191	0.747260274	0.726388889
0.192	0.747945205	0.724305556
0.193	0.748972603	0.723611111
0.194	0.751027397	0.723611111
0.195	0.751712329	0.723611111
0.196	0.754794521	0.722222222
0.197	0.755821918	0.720833333
0.198	0.756849315	0.720138889
0.199	0.758561644	0.717361111
0.2	0.759931507	0.713888889
0.201	0.761986301	0.711805556
0.202	0.76369863	0.710416667
0.203	0.765068493	0.710416667
0.204	0.766438356	0.708333333
0.205	0.767465753	0.705555556
0.206	0.768835616	0.703472222
0.207	0.770547945	0.702777778
0.208	0.772945205	0.702083333
0.209	0.774657534	0.700694444
0.21	0.776027397	0.698611111
0.211	0.776712329	0.696527778
0.212	0.778082192	0.695833333
0.213	0.779109589	0.695138889
0.214	0.780136986	0.695138889
0.215	0.781849315	0.695138889
0.216	0.782876712	0.69375
0.217	0.783219178	0.690972222
0.218	0.784931507	0.690277778
0.219	0.786643836	0.688888889
0.22	0.787671233	0.686111111
0.221	0.789041096	0.684027778
0.222	0.790410959	0.681944444
0.223	0.793493151	0.680555556
0.224	0.794863014	0.678472222
0.225	0.796917808	0.675694444
0.226	0.798972603	0.673611111
0.227	0.8	0.671527778
0.228	0.801369863	0.670833333
0.229	0.803424658	0.670138889
0.23	0.805136986	0.66875
0.231	0.806506849	0.667361111
0.232	0.808219178	0.665277778
0.233	0.80890411	0.663888889
0.234	0.810616438	0.661805556
0.235	0.81130137	0.660416667
0.236	0.813356164	0.656944444
0.237	0.814383562	0.65625
0.238	0.815068493	0.654166667
0.239	0.815410959	0.652083333
0.24	0.816438356	0.650694444
0.241	0.817465753	0.65
0.242	0.817808219	0.648611111
0.243	0.818493151	0.647222222
0.244	0.819520548	0.645138889
0.245	0.820205479	0.64375
0.246	0.820890411	0.639583333
0.247	0.823630137	0.638194444
0.248	0.824657534	0.636111111
0.249	0.825342466	0.634027778
0.25	0.826369863	0.633333333
0.251	0.828424658	0.631944444
0.252	0.829452055	0.628472222
0.253	0.830479452	0.626388889
0.254	0.831849315	0.623611111
0.255	0.833561644	0.621527778
0.256	0.83630137	0.620138889
0.257	0.837671233	0.619444444
0.258	0.840410959	0.619444444
0.259	0.842465753	0.618055556
0.26	0.844863014	0.614583333
0.261	0.84760274	0.611111111
0.262	0.848287671	0.609722222
0.263	0.849657534	0.606944444
0.264	0.851027397	0.603472222
0.265	0.85239726	0.600694444
0.266	0.853424658	0.597222222
0.267	0.855136986	0.595138889
0.268	0.856506849	0.593055556
0.269	0.857876712	0.588194444
0.27	0.85890411	0.586805556
0.271	0.860958904	0.585416667
0.272	0.861643836	0.58125
0.273	0.863356164	0.575694444
0.274	0.865068493	0.575
0.275	0.866780822	0.574305556
0.276	0.868835616	0.572916667
0.277	0.869178082	0.570833333
0.278	0.870205479	0.569444444
0.279	0.871232877	0.566666667
0.28	0.872260274	0.5625
0.281	0.872945205	0.560416667
0.282	0.874315068	0.558333333
0.283	0.874315068	0.55625
0.284	0.876027397	0.551388889
0.285	0.876369863	0.551388889
0.286	0.876712329	0.547916667
0.287	0.878767123	0.544444444
0.288	0.880136986	0.540277778
0.289	0.881506849	0.533333333
0.29	0.884589041	0.529861111
0.291	0.885616438	0.527777778
0.292	0.887328767	0.522916667
0.293	0.887671233	0.521527778
0.294	0.889383562	0.518055556
0.295	0.891780822	0.513888889
0.296	0.893493151	0.511805556
0.297	0.895205479	0.508333333
0.298	0.896232877	0.50625
0.299	0.896575342	0.503472222
0.3	0.898630137	0.499305556
0.301	0.9	0.498611111
0.302	0.902054795	0.496527778
0.303	0.903082192	0.49375
0.304	0.903424658	0.492361111
0.305	0.904794521	0.491666667
0.306	0.905479452	0.488888889
0.307	0.905821918	0.486805556
0.308	0.907534247	0.481944444
0.309	0.908561644	0.478472222
0.31	0.910616438	0.474305556
0.311	0.91130137	0.471527778
0.312	0.911986301	0.468055556
0.313	0.913013699	0.464583333
0.314	0.914383562	0.4625
0.315	0.915753425	0.460416667
0.316	0.916438356	0.457638889
0.317	0.917808219	0.454861111
0.318	0.917808219	0.452777778
0.319	0.918493151	0.448611111
0.32	0.919520548	0.445138889
0.321	0.920205479	0.441666667
0.322	0.920547945	0.438888889
0.323	0.920890411	0.436805556
0.324	0.921232877	0.436805556
0.325	0.921575342	0.434027778
0.326	0.922260274	0.427777778
0.327	0.922945205	0.426388889
0.328	0.924657534	0.422222222
0.329	0.926027397	0.421527778
0.33	0.927054795	0.419444444
0.331	0.928424658	0.415277778
0.332	0.928767123	0.408333333
0.333	0.929794521	0.402777778
0.334	0.930479452	0.4
0.335	0.931849315	0.395138889
0.336	0.932876712	0.390972222
0.337	0.934246575	0.386805556
0.338	0.934589041	0.383333333
0.339	0.935273973	0.379166667
0.34	0.935616438	0.378472222
0.341	0.936643836	0.376388889
0.342	0.937671233	0.372916667
0.343	0.938356164	0.370138889
0.344	0.939041096	0.36875
0.345	0.940068493	0.365972222
0.346	0.940068493	0.360416667
0.347	0.940753425	0.357638889
0.348	0.941780822	0.357638889
0.349	0.942808219	0.354861111
0.35	0.944178082	0.352777778
0.351	0.944520548	0.351388889
0.352	0.944863014	0.348611111
0.353	0.945205479	0.347222222
0.354	0.945205479	0.346527778
0.355	0.945890411	0.342361111
0.356	0.946575342	0.336805556
0.357	0.947945205	0.334027778
0.358	0.948287671	0.332638889
0.359	0.948972603	0.321527778
0.36	0.948972603	0.31875
0.361	0.949315068	0.317361111
0.362	0.949657534	0.310416667
0.363	0.95	0.308333333
0.364	0.95	0.30625
0.365	0.953082192	0.304166667
0.366	0.953424658	0.3
0.367	0.955479452	0.298611111
0.368	0.956849315	0.296527778
0.369	0.957534247	0.295138889
0.37	0.957534247	0.289583333
0.371	0.957876712	0.286111111
0.372	0.957876712	0.285416667
0.373	0.958561644	0.282638889
0.374	0.959589041	0.279861111
0.375	0.96130137	0.277083333
0.376	0.961643836	0.274305556
0.377	0.963013699	0.269444444
0.378	0.96369863	0.268055556
0.379	0.964041096	0.266666667
0.38	0.964383562	0.261805556
0.381	0.964726027	0.259722222
0.382	0.965068493	0.257638889
0.383	0.96609589	0.255555556
0.384	0.96609589	0.253472222
0.385	0.96609589	0.252083333
0.386	0.96609589	0.252083333
0.387	0.966438356	0.249305556
0.388	0.966438356	0.242361111
0.389	0.966438356	0.241666667
0.39	0.966438356	0.239583333
0.391	0.966780822	0.236111111
0.392	0.967465753	0.229166667
0.393	0.967465753	0.222916667
0.394	0.967808219	0.220833333
0.395	0.967808219	0.217361111
0.396	0.967808219	0.215972222
0.397	0.967808219	0.215972222
0.398	0.968835616	0.213194444
0.399	0.969178082	0.211111111
0.4	0.969863014	0.206944444
0.401	0.970205479	0.205555556
0.402	0.971232877	0.204861111
0.403	0.971232877	0.202083333
0.404	0.971232877	0.201388889
0.405	0.971232877	0.2
0.406	0.971575342	0.198611111
0.407	0.972260274	0.197222222
0.408	0.97260274	0.195138889
0.409	0.97260274	0.19375
0.41	0.972945205	0.192361111
0.411	0.972945205	0.192361111
0.412	0.973287671	0.191666667
0.413	0.973287671	0.189583333
0.414	0.974657534	0.186805556
0.415	0.975	0.184027778
0.416	0.975342466	0.184027778
0.417	0.976369863	0.182638889
0.418	0.976712329	0.18125
0.419	0.976712329	0.180555556
0.42	0.97739726	0.179166667
0.421	0.97739726	0.178472222
0.422	0.977739726	0.177083333
0.423	0.977739726	0.176388889
0.424	0.978424658	0.175694444
0.425	0.978767123	0.172916667
0.426	0.978767123	0.171527778
0.427	0.979109589	0.168055556
0.428	0.979452055	0.166666667
0.429	0.979452055	0.165277778
0.43	0.979452055	0.164583333
0.431	0.979452055	0.1625
0.432	0.979794521	0.161805556
0.433	0.979794521	0.161111111
0.434	0.980479452	0.161111111
0.435	0.980821918	0.158333333
0.436	0.980821918	0.156944444
0.437	0.981506849	0.152777778
0.438	0.981506849	0.152083333
0.439	0.981506849	0.151388889
0.44	0.982191781	0.151388889
0.441	0.982191781	0.149305556
0.442	0.982191781	0.149305556
0.443	0.982876712	0.148611111
0.444	0.982876712	0.145833333
0.445	0.982876712	0.145833333
0.446	0.983561644	0.144444444
0.447	0.984246575	0.143055556
0.448	0.984246575	0.143055556
0.449	0.984246575	0.143055556
0.45	0.984246575	0.143055556
0.451	0.984589041	0.140972222
0.452	0.984589041	0.138888889
0.453	0.984931507	0.134722222
0.454	0.984931507	0.134722222
0.455	0.984931507	0.134722222
0.456	0.984931507	0.134027778
0.457	0.985273973	0.133333333
0.458	0.985273973	0.133333333
0.459	0.985273973	0.13125
0.46	0.985273973	0.130555556
0.461	0.985616438	0.129166667
0.462	0.985616438	0.125
0.463	0.985616438	0.124305556
0.464	0.985958904	0.124305556
0.465	0.98630137	0.124305556
0.466	0.986643836	0.123611111
0.467	0.986986301	0.122222222
0.468	0.986986301	0.120833333
0.469	0.987328767	0.118055556
0.47	0.987671233	0.118055556
0.471	0.988013699	0.115972222
0.472	0.988013699	0.115277778
0.473	0.988013699	0.114583333
0.474	0.988013699	0.114583333
0.475	0.988013699	0.114583333
0.476	0.988013699	0.1125
0.477	0.988013699	0.1125
0.478	0.988013699	0.111805556
0.479	0.988356164	0.111805556
0.48	0.988356164	0.111805556
0.481	0.988356164	0.109722222
0.482	0.988356164	0.109027778
0.483	0.988356164	0.107638889
0.484	0.988356164	0.106944444
0.485	0.98869863	0.10625
0.486	0.98869863	0.105555556
0.487	0.98869863	0.104861111
0.488	0.989041096	0.104166667
0.489	0.989383562	0.099305556
0.49	0.989726027	0.099305556
0.491	0.990068493	0.097222222
0.492	0.990410959	0.096527778
0.493	0.990410959	0.095138889
0.494	0.990410959	0.091666667
0.495	0.990410959	0.090972222
0.496	0.990753425	0.090277778
0.497	0.990753425	0.090277778
0.498	0.990753425	0.090277778
0.499	0.990753425	0.086805556
0.5	0.990753425	0.086111111
0.501	0.990753425	0.086111111
0.502	0.990753425	0.084722222
0.503	0.990753425	0.084722222
0.504	0.990753425	0.084722222
0.505	0.990753425	0.084722222
0.506	0.990753425	0.084722222
0.507	0.99109589	0.084027778
0.508	0.99109589	0.084027778
0.509	0.992123288	0.077777778
0.51	0.992123288	0.077777778
0.511	0.992123288	0.077777778
0.512	0.992123288	0.077777778
0.513	0.992465753	0.077777778
0.514	0.992465753	0.077777778
0.515	0.992808219	0.077777778
0.516	0.993150685	0.077777778
0.517	0.993150685	0.077777778
0.518	0.993150685	0.077777778
0.519	0.993150685	0.077777778
0.52	0.993150685	0.077777778
0.521	0.993150685	0.077777778
0.522	0.993150685	0.077083333
0.523	0.993150685	0.077083333
0.524	0.993150685	0.077083333
0.525	0.993150685	0.075
0.526	0.993493151	0.075
0.527	0.993493151	0.074305556
0.528	0.993835616	0.074305556
0.529	0.993835616	0.070138889
0.53	0.993835616	0.070138889
0.531	0.993835616	0.069444444
0.532	0.993835616	0.069444444
0.533	0.993835616	0.069444444
0.534	0.993835616	0.069444444
0.535	0.993835616	0.069444444
0.536	0.993835616	0.066666667
0.537	0.993835616	0.065972222
0.538	0.993835616	0.064583333
0.539	0.993835616	0.061111111
0.54	0.993835616	0.059722222
0.541	0.993835616	0.055555556
0.542	0.993835616	0.055555556
0.543	0.993835616	0.054861111
0.544	0.993835616	0.054166667
0.545	0.993835616	0.054166667
0.546	0.993835616	0.054166667
0.547	0.993835616	0.052777778
0.548	0.993835616	0.052083333
0.549	0.993835616	0.050694444
0.55	0.993835616	0.050694444
0.551	0.993835616	0.050694444
0.552	0.994178082	0.050694444
0.553	0.994520548	0.049305556
0.554	0.994520548	0.049305556
0.555	0.994520548	0.047916667
0.556	0.994520548	0.047916667
0.557	0.994520548	0.047916667
0.558	0.994863014	0.045138889
0.559	0.994863014	0.044444444
0.56	0.994863014	0.044444444
0.561	0.994863014	0.044444444
0.562	0.994863014	0.044444444
0.563	0.994863014	0.04375
0.564	0.994863014	0.043055556
0.565	0.994863014	0.043055556
0.566	0.994863014	0.042361111
0.567	0.994863014	0.041666667
0.568	0.994863014	0.040277778
0.569	0.995205479	0.040277778
0.57	0.995205479	0.040277778
0.571	0.995205479	0.040277778
0.572	0.995205479	0.040277778
0.573	0.995205479	0.040277778
0.574	0.995205479	0.040277778
0.575	0.995205479	0.040277778
0.576	0.995547945	0.038194444
0.577	0.995547945	0.038194444
0.578	0.995547945	0.038194444
0.579	0.995547945	0.036805556
0.58	0.995890411	0.032638889
0.581	0.996232877	0.032638889
0.582	0.996232877	0.031944444
0.583	0.996575342	0.031944444
0.584	0.996917808	0.029861111
0.585	0.996917808	0.029166667
0.586	0.996917808	0.029166667
0.587	0.996917808	0.029166667
0.588	0.996917808	0.029166667
0.589	0.996917808	0.028472222
0.59	0.996917808	0.028472222
0.591	0.996917808	0.028472222
0.592	0.996917808	0.028472222
0.593	0.996917808	0.028472222
0.594	0.996917808	0.028472222
0.595	0.996917808	0.028472222
0.596	0.996917808	0.028472222
0.597	0.996917808	0.028472222
0.598	0.996917808	0.028472222
0.599	0.996917808	0.027777778
0.6	0.996917808	0.027083333
0.601	0.996917808	0.027083333
0.602	0.996917808	0.026388889
0.603	0.996917808	0.026388889
0.604	0.996917808	0.026388889
0.605	0.996917808	0.026388889
0.606	0.996917808	0.025694444
0.607	0.996917808	0.025694444
0.608	0.997260274	0.024305556
0.609	0.997260274	0.021527778
0.61	0.997260274	0.021527778
0.611	0.997260274	0.021527778
0.612	0.997260274	0.021527778
0.613	0.997260274	0.021527778
0.614	0.997260274	0.021527778
0.615	0.997260274	0.020833333
0.616	0.997260274	0.020833333
0.617	0.997260274	0.020833333
0.618	0.997260274	0.020833333
0.619	0.99760274	0.019444444
0.62	0.997945205	0.019444444
0.621	0.998287671	0.015972222
0.622	0.998630137	0.015277778
0.623	0.998630137	0.015277778
0.624	0.998630137	0.015277778
0.625	0.998630137	0.015277778
0.626	0.998630137	0.015277778
0.627	0.998630137	0.015277778
0.628	0.998630137	0.015277778
0.629	0.998630137	0.015277778
0.63	0.998630137	0.015277778
0.631	0.998630137	0.015277778
0.632	0.999315068	0.013194444
0.633	0.999315068	0.0125
0.634	0.999315068	0.0125
0.635	0.999315068	0.011805556
0.636	0.999315068	0.011805556
0.637	0.999315068	0.011111111
0.638	0.999315068	0.010416667
0.639	0.999315068	0.010416667
0.64	0.999315068	0.010416667
0.641	0.999657534	0.010416667
0.642	0.999657534	0.010416667
0.643	0.999657534	0.010416667
0.644	0.999657534	0.010416667
0.645	0.999657534	0.010416667
0.646	0.999657534	0.010416667
0.647	0.999657534	0.010416667
0.648	0.999657534	0.010416667
0.649	0.999657534	0.010416667
0.65	0.999657534	0.010416667
0.651	0.999657534	0.010416667
0.652	0.999657534	0.010416667
0.653	0.999657534	0.010416667
0.654	0.999657534	0.010416667
0.655	0.999657534	0.010416667
0.656	0.999657534	0.010416667
0.657	0.999657534	0.010416667
0.658	0.999657534	0.010416667
0.659	0.999657534	0.010416667
0.66	0.999657534	0.010416667
0.661	0.999657534	0.010416667
0.662	0.999657534	0.010416667
0.663	0.999657534	0.010416667
0.664	0.999657534	0.010416667
0.665	0.999657534	0.010416667
0.666	0.999657534	0.009722222
0.667	0.999657534	0.009722222
0.668	0.999657534	0.009722222
0.669	0.999657534	0.009722222
0.67	0.999657534	0.009722222
0.671	0.999657534	0.009722222
0.672	0.999657534	0.009722222
0.673	0.999657534	0.009722222
0.674	0.999657534	0.009722222
0.675	0.999657534	0.009722222
0.676	0.999657534	0.009722222
0.677	0.999657534	0.009722222
0.678	0.999657534	0.009722222
0.679	0.999657534	0.008333333
0.68	0.999657534	0.008333333
0.681	0.999657534	0.008333333
0.682	0.999657534	0.008333333
0.683	0.999657534	0.008333333
0.684	0.999657534	0.008333333
0.685	1	0.008333333
0.686	1	0.007638889
0.687	1	0.007638889
0.688	1	0.007638889
0.689	1	0.007638889
0.69	1	0.007638889
0.691	1	0.007638889
0.692	1	0.007638889
0.693	1	0.007638889
0.694	1	0.007638889
0.695	1	0.00625
0.696	1	0.00625
0.697	1	0.00625
0.698	1	0.00625
0.699	1	0.00625
0.7	1	0.00625
0.701	1	0.00625
0.702	1	0.00625
0.703	1	0.00625
0.704	1	0.00625
0.705	1	0.005555556
0.706	1	0.005555556
0.707	1	0.005555556
0.708	1	0.005555556
0.709	1	0.005555556
0.71	1	0.005555556
0.711	1	0.005555556
0.712	1	0.005555556
0.713	1	0.004861111
0.714	1	0.004166667
0.715	1	0.004166667
0.716	1	0.003472222
0.717	1	0.003472222
0.718	1	0.003472222
0.719	1	0.003472222
0.72	1	0.003472222
0.721	1	0.003472222
0.722	1	0.003472222
0.723	1	0.003472222
0.724	1	0.003472222
0.725	1	0.003472222
0.726	1	0.003472222
0.727	1	0.003472222
0.728	1	0.003472222
0.729	1	0.003472222
0.73	1	0.003472222
0.731	1	0.003472222
0.732	1	0.003472222
0.733	1	0.003472222
0.734	1	0.002777778
0.735	1	0.002777778
0.736	1	0.002777778
0.737	1	0.002777778
0.738	1	0.002777778
0.739	1	0.002777778
0.74	1	0.002777778
0.741	1	0.002777778
0.742	1	0.002777778
0.743	1	0.002777778
0.744	1	0.002777778
0.745	1	0.002777778
0.746	1	0.002777778
0.747	1	0.002777778
0.748	1	0.002083333
0.749	1	0.002083333
0.75	1	0.002083333
0.751	1	0.002083333
0.752	1	0.002083333
0.753	1	0.002083333
0.754	1	0.002083333
0.755	1	0.001388889
0.756	1	0.001388889
0.757	1	0.001388889
0.758	1	0.000694444
0.759	1	0.000694444
0.76	1	0.000694444
0.761	1	0.000694444
0.762	1	0.000694444
0.763	1	0.000694444
0.764	1	0.000694444
0.765	1	0
0.766	1	0
0.767	1	0
0.768	1	0
0.769	1	0
0.77	1	0
0.771	1	0
0.772	1	0
0.773	1	0
0.774	1	0
0.775	1	0
0.776	1	0
0.777	1	0
0.778	1	0
0.779	1	0
0.78	1	0
0.781	1	0
0.782	1	0
0.783	1	0
0.784	1	0
0.785	1	0
0.786	1	0
0.787	1	0
0.788	1	0
0.789	1	0
0.79	1	0
0.791	1	0
0.792	1	0
0.793	1	0
0.794	1	0
0.795	1	0
0.796	1	0
0.797	1	0
0.798	1	0
0.799	1	0
0.8	1	0
0.801	1	0
0.802	1	0
0.803	1	0
0.804	1	0
0.805	1	0
0.806	1	0
0.807	1	0
0.808	1	0
0.809	1	0
0.81	1	0
0.811	1	0
0.812	1	0
0.813	1	0
0.814	1	0
0.815	1	0
0.816	1	0
0.817	1	0
0.818	1	0
0.819	1	0
0.82	1	0
0.821	1	0
0.822	1	0
0.823	1	0
0.824	1	0
0.825	1	0
0.826	1	0
0.827	1	0
0.828	1	0
0.829	1	0
0.83	1	0
0.831	1	0
0.832	1	0
0.833	1	0
0.834	1	0
0.835	1	0
0.836	1	0
0.837	1	0
0.838	1	0
0.839	1	0
0.84	1	0
0.841	1	0
0.842	1	0
0.843	1	0
0.844	1	0
0.845	1	0
0.846	1	0
0.847	1	0
0.848	1	0
0.849	1	0
0.85	1	0
0.851	1	0
0.852	1	0
0.853	1	0
0.854	1	0
0.855	1	0
0.856	1	0
0.857	1	0
0.858	1	0
0.859	1	0
0.86	1	0
0.861	1	0
0.862	1	0
0.863	1	0
0.864	1	0
0.865	1	0
0.866	1	0
0.867	1	0
0.868	1	0
0.869	1	0
0.87	1	0
0.871	1	0
0.872	1	0
0.873	1	0
0.874	1	0
0.875	1	0
0.876	1	0
0.877	1	0
0.878	1	0
0.879	1	0
0.88	1	0
0.881	1	0
0.882	1	0
0.883	1	0
0.884	1	0
0.885	1	0
0.886	1	0
0.887	1	0
0.888	1	0
0.889	1	0
0.89	1	0
0.891	1	0
0.892	1	0
0.893	1	0
0.894	1	0
0.895	1	0
0.896	1	0
0.897	1	0
0.898	1	0
0.899	1	0
0.9	1	0
0.901	1	0
0.902	1	0
0.903	1	0
0.904	1	0
0.905	1	0
0.906	1	0
0.907	1	0
0.908	1	0
0.909	1	0
0.91	1	0
0.911	1	0
0.912	1	0
0.913	1	0
0.914	1	0
0.915	1	0
0.916	1	0
0.917	1	0
0.918	1	0
0.919	1	0
0.92	1	0
0.921	1	0
0.922	1	0
0.923	1	0
0.924	1	0
0.925	1	0
0.926	1	0
0.927	1	0
0.928	1	0
0.929	1	0
0.93	1	0
0.931	1	0
0.932	1	0
0.933	1	0
0.934	1	0
0.935	1	0
0.936	1	0
0.937	1	0
0.938	1	0
0.939	1	0
0.94	1	0
0.941	1	0
0.942	1	0
0.943	1	0
0.944	1	0
0.945	1	0
0.946	1	0
0.947	1	0
0.948	1	0
0.949	1	0
0.95	1	0
0.951	1	0
0.952	1	0
0.953	1	0
0.954	1	0
0.955	1	0
0.956	1	0
0.957	1	0
0.958	1	0
0.959	1	0
0.96	1	0
0.961	1	0
0.962	1	0
0.963	1	0
0.964	1	0
0.965	1	0
0.966	1	0
0.967	1	0
0.968	1	0
0.969	1	0
0.97	1	0
0.971	1	0
0.972	1	0
0.973	1	0
0.974	1	0
0.975	1	0
0.976	1	0
0.977	1	0
0.978	1	0
0.979	1	0
0.98	1	0
0.981	1	0
0.982	1	0
0.983	1	0
0.984	1	0
0.985	1	0
0.986	1	0
0.987	1	0
0.988	1	0
0.989	1	0
0.99	1	0
0.991	1	0
0.992	1	0
0.993	1	0
0.994	1	0
0.995	1	0
0.996	1	0
0.997	1	0
0.998	1	0
0.999	1	0
